…
means <- atmos %>% 
  filter(year == year) %>%
  group_by(long, lat) %>%
  summarize(temp = mean(temp, na.rm = TRUE), 
         pressure = mean(pressure, na.rm = TRUE),
         ozone = mean(ozone, na.rm = TRUE),
         cloudlow = mean(cloudlow, na.rm = TRUE),
         cloudmid = mean(cloudmid, na.rm = TRUE),
         cloudhigh = mean(cloudhigh, na.rm = TRUE)) %>%
  ungroup()

print(means)
```

    ## # A tibble: 561 x 8
    ##      long        lat     temp pressure    ozone cloudlow   cloudmid
    ##     <dbl>      <dbl>    <dbl>    <dbl>    <dbl>    <dbl>      <dbl>
    ## 1  -113.8 -21.200000 296.1333     1000 269.3333 36.16667  6.3333333
    ## 2  -113.8 -18.704348 295.7250     1000 268.5000 38.25000  3.0000000
    ## 3  -113.8 -16.208696 298.0500     1000 248.0000 36.50000  2.2500000
    ## 4  -113.8 -13.713043 296.0000     1000 265.0000 36.00000  1.2500000
    ## 5  -113.8 -11.217391 296.8800     1000 260.8000 35.00000  1.1000000
    ## 6  -113.8  -8.721739 296.9000     1000 262.0000 30.12500  1.7500000
    ## 7  -113.8  -6.226087 299.5000     1000 250.6667 28.50000  5.5000000
    ## 8  -113.8  -3.730435 298.4333     1000 254.6667 18.50000  0.8333333
    ## 9  -113.8  -1.234783 301.0000     1000 232.0000 29.00000 24.0000000
    ## 10 -113.8   1.260870 296.9333     1000 256.0000 43.33333  5.8333333
    ## # ... with 551 more rows, and 1 more variables: cloudhigh <dbl>
…
